module gitlab.com/rteja-library3/rmongodb

go 1.17

require (
	github.com/stretchr/testify v1.7.0
	go.elastic.co/apm/module/apmmongo v1.15.0
	go.mongodb.org/mongo-driver v1.8.3
)

require (
	github.com/armon/go-radix v1.0.0 // indirect
	github.com/davecgh/go-spew v1.1.1 // indirect
	github.com/elastic/go-licenser v0.3.1 // indirect
	github.com/elastic/go-sysinfo v1.1.1 // indirect
	github.com/elastic/go-windows v1.0.0 // indirect
	github.com/go-stack/stack v1.8.0 // indirect
	github.com/golang/snappy v0.0.1 // indirect
	github.com/jcchavezs/porto v0.1.0 // indirect
	github.com/joeshaw/multierror v0.0.0-20140124173710-69b34d4ec901 // indirect
	github.com/klauspost/compress v1.13.6 // indirect
	github.com/pkg/errors v0.9.1 // indirect
	github.com/pmezard/go-difflib v1.0.0 // indirect
	github.com/prometheus/procfs v0.0.0-20190425082905-87a4384529e0 // indirect
	github.com/santhosh-tekuri/jsonschema v1.2.4 // indirect
	github.com/stretchr/objx v0.1.1 // indirect
	github.com/xdg-go/pbkdf2 v1.0.0 // indirect
	github.com/xdg-go/scram v1.0.2 // indirect
	github.com/xdg-go/stringprep v1.0.2 // indirect
	github.com/youmark/pkcs8 v0.0.0-20181117223130-1be2e3e5546d // indirect
	go.elastic.co/apm v1.15.0 // indirect
	go.elastic.co/fastjson v1.1.0 // indirect
	golang.org/x/crypto v0.0.0-20201216223049-8b5274cf687f // indirect
	golang.org/x/lint v0.0.0-20201208152925-83fdc39ff7b5 // indirect
	golang.org/x/mod v0.3.0 // indirect
	golang.org/x/sync v0.0.0-20190911185100-cd5d95a43a6e // indirect
	golang.org/x/sys v0.0.0-20191204072324-ce4227a45e2e // indirect
	golang.org/x/text v0.3.5 // indirect
	golang.org/x/tools v0.0.0-20200509030707-2212a7e161a5 // indirect
	golang.org/x/xerrors v0.0.0-20191204190536-9bdfabe68543 // indirect
	gopkg.in/yaml.v3 v3.0.0-20200313102051-9f266ea9e77c // indirect
	howett.net/plist v0.0.0-20181124034731-591f970eefbb // indirect
)
